index mol1 nmol1 plus mol2 nmol2 arrow mol3 nmol3 plus mol4 nmol4
6 C 0  +  [OH] 3  ->  O 1  +  [CH3] 2
7 C 0  +  [CH2] 4  ->  [CH3] 2  +  [CH3] 2
8 C 0  +  [O] 5  ->  [OH] 3  +  [CH3] 2
9 C 0  +  [CH] 6  ->  [CH2] 4  +  [CH3] 2
10 C 0  +  [C] 7  ->  [CH] 6  +  [CH3] 2
11 O 1  +  [CH2] 4  ->  [CH3] 2  +  [OH] 3
12 O 1  +  [O] 5  ->  [OH] 3  +  [OH] 3
13 O 1  +  [CH] 6  ->  [CH2] 4  +  [OH] 3
14 O 1  +  [C] 7  ->  [CH] 6  +  [OH] 3
15 [CH3] 2  +  [O] 5  ->  [OH] 3  +  [CH2] 4
16 [CH3] 2  +  [CH] 6  ->  [CH2] 4  +  [CH2] 4
17 [CH3] 2  +  [C] 7  ->  [CH] 6  +  [CH2] 4
18 [OH] 3  +  [CH] 6  ->  [CH2] 4  +  [O] 5
19 [OH] 3  +  [C] 7  ->  [CH] 6  +  [O] 5
20 [CH2] 4  +  [C] 7  ->  [CH] 6  +  [CH] 6
