index mol1 nmol1 arrow mol2 nmol2 plus mol3 nmol3
0 C 0  ->  [CH3] 9  +  [H] 29
1 O 1  ->  [OH] 10  +  [H] 29
2 CC 2  ->  [CH3] 9  +  [CH3] 9
3 CC 2  ->  [CH2]C 11  +  [H] 29
4 CO 3  ->  [CH3] 9  +  [OH] 10
5 CO 3  ->  [CH2]O 12  +  [H] 29
6 CO 3  ->  C[O] 13  +  [H] 29
7 OO 4  ->  [OH] 10  +  [OH] 10
8 OO 4  ->  [O]O 14  +  [H] 29
9 [CH2]C 11  ->  C=C 5  +  [H] 29
10 C=C 5  ->  [CH]=C 15  +  [H] 29
11 C=C 5  ->  [CH2] 18  +  [CH2] 18
12 [CH2]O 12  ->  C=O 6  +  [H] 29
13 C[O] 13  ->  C=O 6  +  [H] 29
14 C=O 6  ->  [CH]=O 16  +  [H] 29
15 C=O 6  ->  [CH2] 18  +  [O] 19
16 [O]O 14  ->  O=O 7  +  [H] 29
17 O=O 7  ->  [O] 19  +  [O] 19
18 [CH]=C 15  ->  C#C 8  +  [H] 29
19 C#C 8  ->  [C]#C 17  +  [H] 29
20 C#C 8  ->  [CH] 25  +  [CH] 25
21 [CH2]C 11  ->  [CH2] 18  +  [CH3] 9
22 C[O] 13  ->  [CH3] 9  +  [O] 19
23 [CH3] 9  ->  [CH2] 18  +  [H] 29
24 [CH]C 20  ->  [CH] 25  +  [CH3] 9
25 [C]C 26  ->  [C] 28  +  [CH3] 9
26 [CH2]O 12  ->  [CH2] 18  +  [OH] 10
27 [O]O 14  ->  [O] 19  +  [OH] 10
28 [OH] 10  ->  [O] 19  +  [H] 29
29 [CH]O 21  ->  [CH] 25  +  [OH] 10
30 [C]O 27  ->  [C] 28  +  [OH] 10
31 [CH2]C 11  ->  [CH]C 20  +  [H] 29
32 [CH2]O 12  ->  [CH]O 21  +  [H] 29
33 [CH]=C 15  ->  [CH] 25  +  [CH2] 18
34 [CH]C 20  ->  [CH]=C 15  +  [H] 29
35 [CH]=C 15  ->  [C]=C 22  +  [H] 29
36 [CH]=O 16  ->  [CH] 25  +  [O] 19
37 [CH]O 21  ->  [CH]=O 16  +  [H] 29
38 [CH]=O 16  ->  [C]=O 23  +  [H] 29
39 [C]=C 22  ->  [C]#C 17  +  [H] 29
40 [C]#C 17  ->  [C]#[C] 24  +  [H] 29
41 [C]#C 17  ->  [C] 28  +  [CH] 25
42 [C]=C 22  ->  [C] 28  +  [CH2] 18
43 [CH2] 18  ->  [CH] 25  +  [H] 29
44 [C]=O 23  ->  [C] 28  +  [O] 19
45 [CH]C 20  ->  [C]C 26  +  [H] 29
46 [CH]O 21  ->  [C]O 27  +  [H] 29
47 [C]C 26  ->  [C]=C 22  +  [H] 29
48 [C]O 27  ->  [C]=O 23  +  [H] 29
49 [C]#[C] 24  ->  [C] 28  +  [C] 28
50 [CH] 25  ->  [C] 28  +  [H] 29
51 [H][H] 30  ->  [H] 29  +  [H] 29
