 Index Molecule 
0 C
1 O
2 CC
3 CO
4 OO
5 CCC
6 CCO
7 COC
8 OCO
9 COO
10 CC(C)C
11 CCCC
12 CC(C)O
13 CCCO
14 CCOC
15 CC(O)O
16 OCCO
17 CCOO
18 COCO
19 COOC
20 C1CC1
21 C1CO1
22 C1OO1
23 CC1CC1
24 C1CCC1
25 OC1CC1
26 CC1CO1
27 C1COC1
28 OC1CO1
29 CC1OO1
30 C1COO1
31 C1OCO1
32 C=C
33 C=O
34 O=O
35 C=CC
36 C=CO
37 CC=O
38 O=CO
39 C=C(C)C
40 CC=CC
41 C=CCC
42 C=C(C)O
43 CC(C)=O
44 CC=CO
45 C=CCO
46 CCC=O
47 C=COC
48 C=C(O)O
49 CC(=O)O
50 OC=CO
51 O=CCO
52 C=COO
53 COC=O
54 C1=CC1
55 C1=CO1
56 CC1=CC1
57 C=C1CC1
58 CC1C=C1
59 C1=CCC1
60 OC1=CC1
61 O=C1CC1
62 OC1C=C1
63 CC1=CO1
64 C=C1CO1
65 C1=COC1
66 OC1=CO1
67 O=C1CO1
68 C=C1OO1
69 c1coo1
70 C#C
71 C#CC
72 C=C=C
73 C#CO
74 C=C=O
75 O=C=O
76 CC#CC
77 C=C=CC
78 C#CCC
79 C=CC=C
80 CC#CO
81 C=C=CO
82 CC=C=O
83 C#CCO
84 C=CC=O
85 C#COC
86 OC#CO
87 O=C=CO
88 O=CC=O
89 C#COO
90 C=C1C=C1
91 C1=CC=C1
92 O=c1cc1
93 C=C=C=C
94 C#CC=C
95 C=C=C=O
96 C#CC=O
97 O=C=C=O
98 C#CC#C
99 [CH3]
100 [OH]
101 [CH2]C
102 [CH2]O
103 C[O]
104 [O]O
105 C[CH]C
106 [CH2]CC
107 C[CH]O
108 [CH2]CO
109 CC[O]
110 [CH2]OC
111 O[CH]O
112 [O]CO
113 [CH2]OO
114 CO[O]
115 C[C](C)C
116 [CH2]C(C)C
117 C[CH]CC
118 [CH2]CCC
119 C[C](C)O
120 [CH2]C(C)O
121 CC(C)[O]
122 C[CH]CO
123 CC[CH]O
124 [CH2]CCO
125 CCC[O]
126 C[CH]OC
127 [CH2]COC
128 [CH2]OCC
129 C[C](O)O
130 [CH2]C(O)O
131 CC([O])O
132 O[CH]CO
133 [O]CCO
134 C[CH]OO
135 [CH2]COO
136 CCO[O]
137 CO[CH]O
138 [CH2]OCO
139 COC[O]
140 [CH2]OOC
141 [CH]1CC1
142 [CH]1CO1
143 [CH]1OO1
144 C[C]1CC1
145 CC1[CH]C1
146 [CH2]C1CC1
147 [CH]1CCC1
148 O[C]1CC1
149 OC1[CH]C1
150 [O]C1CC1
151 C[C]1CO1
152 CC1[CH]O1
153 [CH2]C1CO1
154 [CH]1COC1
155 [CH]1CCO1
156 O[C]1CO1
157 OC1[CH]O1
158 [O]C1CO1
159 C[C]1OO1
160 [CH2]C1OO1
161 [CH]1COO1
162 [CH]1OCO1
163 [CH]=C
164 [CH]=O
165 C=[C]C
166 [CH]=CC
167 [CH2]C=C
168 C=[C]O
169 [CH]=CO
170 C=C[O]
171 C[C]=O
172 O=[C]O
173 [O]C=O
174 [CH]=C(C)C
175 [CH2]C(=C)C
176 C[C]=CC
177 [CH2]C=CC
178 C=[C]CC
179 [CH]=CCC
180 [CH2]CC=C
181 [CH]=C(C)O
182 [CH2]C(=C)O
183 C=C(C)[O]
184 C[C]=CO
185 CC=[C]O
186 [CH2]C=CO
187 CC=C[O]
188 C=[C]CO
189 [CH]=CCO
190 C=CC[O]
191 CC[C]=O
192 [CH2]CC=O
193 C=[C]OC
194 [CH]=COC
195 [CH2]OC=C
196 [CH]=C(O)O
197 C=C([O])O
198 CC([O])=O
199 O[C]=CO
200 [O]C=CO
201 O=[C]CO
202 [O]CC=O
203 C=[C]OO
204 [CH]=COO
205 C=CO[O]
206 CO[C]=O
207 [CH2]OC=O
208 [C]1=CC1
209 [CH]1C=C1
210 [C]1=CO1
211 CC1=[C]C1
212 CC1=C[CH]1
213 [CH2]C1=CC1
214 [CH]=C1CC1
215 CC1[C]=C1
216 [CH2]C1C=C1
217 [C]1=CCC1
218 [CH]1C=CC1
219 OC1=[C]C1
220 OC1=C[CH]1
221 [O]C1=CC1
222 OC1[C]=C1
223 [O]C1C=C1
224 CC1=[C]O1
225 [CH2]C1=CO1
226 [CH]=C1CO1
227 [C]1=COC1
228 [C]1=CCO1
229 [CH]1C=CO1
230 OC1=[C]O1
231 [O]C1=CO1
232 [CH]=C1OO1
233 [c]1coo1
234 [C]#C
235 [C]#CC
236 C#C[CH2]
237 [C]#CO
238 C#C[O]
239 [CH2]C#CC
240 [CH]=C=CC
241 [CH2]C=C=C
242 [C]#CCC
243 C#CC[CH2]
244 [CH]=CC=C
245 [CH2]C#CO
246 CC#C[O]
247 [CH]=C=CO
248 C=C=C[O]
249 [CH2]C=C=O
250 [C]#CCO
251 C#CC[O]
252 [CH]=CC=O
253 [C]#COC
254 C#CO[CH2]
255 [O]C#CO
256 [O]C=C=O
257 [C]#COO
258 C#CO[O]
259 C=C1[C]=C1
260 [CH]=C1C=C1
261 [C]1=CC=C1
262 O=c1[c]c1
263 [CH]=C=C=C
264 [C]#CC=C
265 [CH]=CC#C
266 [CH]=C=C=O
267 [C]#CC=O
268 [C]#CC#C
269 [CH2]
270 [O]
271 [CH]C
272 [CH]O
273 C[C]C
274 [CH]CC
275 [CH2]C[CH2]
276 C[C]O
277 [CH]CO
278 [CH2]C[O]
279 [CH]OC
280 [CH2]O[CH2]
281 O[C]O
282 [O]C[O]
283 [CH]OO
284 [CH2]O[O]
285 [CH]C(C)C
286 [CH2]C([CH2])C
287 C[C]CC
288 [CH2]C[CH]C
289 [CH]CCC
290 [CH2]CC[CH2]
291 [CH]C(C)O
292 [CH2]C([CH2])O
293 [CH2]C(C)[O]
294 C[C]CO
295 C[CH]C[O]
296 CC[C]O
297 [CH2]C[CH]O
298 [CH]CCO
299 [CH2]CC[O]
300 C[C]OC
301 [CH2]O[CH]C
302 [CH]COC
303 [CH2]CO[CH2]
304 [CH]OCC
305 [CH]C(O)O
306 [CH2]C([O])O
307 CC([O])[O]
308 O[C]CO
309 [O]C[CH]O
310 [O]CC[O]
311 C[C]OO
312 C[CH]O[O]
313 [CH]COO
314 [CH2]CO[O]
315 CO[C]O
316 [CH2]O[CH]O
317 [CH]OCO
318 [CH2]OC[O]
319 [CH]OOC
320 [CH2]OO[CH2]
321 [C]1CC1
322 [C]1CO1
323 [C]1OO1
324 CC1[C]C1
325 [CH2]C1[CH]C1
326 [CH]C1CC1
327 [C]1CCC1
328 [CH]1C[CH]C1
329 OC1[C]C1
330 [O]C1[CH]C1
331 CC1[C]O1
332 [CH2]C1[CH]O1
333 [CH]C1CO1
334 [C]1COC1
335 [C]1CCO1
336 [CH]1C[CH]O1
337 OC1[C]O1
338 [O]C1[CH]O1
339 [CH]C1OO1
340 [C]1COO1
341 [C]1OCO1
342 [CH]1O[CH]O1
343 [C]=C
344 [C]=O
345 [C]=CC
346 [CH]=C[CH2]
347 [C]=CO
348 [CH]=C[O]
349 [C]=C(C)C
350 [CH]=C([CH2])C
351 [CH2]C([CH2])=C
352 [CH2]C=[C]C
353 [CH]C=CC
354 [CH2]C[C]=C
355 [C]=CCC
356 [CH]=CC[CH2]
357 [CH]CC=C
358 [C]=C(C)O
359 [CH]=C([CH2])O
360 [CH]=C(C)[O]
361 [CH2]C(=C)[O]
362 C[C]=C[O]
363 [CH2]C=[C]O
364 [CH]C=CO
365 C=[C]C[O]
366 [C]=CCO
367 [CH]=CC[O]
368 [CH2]C[C]=O
369 [CH]CC=O
370 [CH2]O[C]=C
371 [C]=COC
372 [CH]=CO[CH2]
373 [CH]OC=C
374 [C]=C(O)O
375 [CH]=C([O])O
376 C=C([O])[O]
377 [O]C=[C]O
378 [O]C[C]=O
379 C=[C]O[O]
380 [C]=COO
381 [CH]=CO[O]
382 [CH2]O[C]=O
383 [CH]OC=O
384 [C]1=[C]C1
385 [C]1=C[CH]1
386 [C]1=[C]O1
387 CC1=[C][CH]1
388 [CH2]C1=[C]C1
389 [CH]C1=CC1
390 [C]=C1CC1
391 CC1[C]=[C]1
392 [CH2]C1[C]=C1
393 [CH]C1C=C1
394 [C]1=[C]CC1
395 [C]1=CC[CH]1
396 [C]1=C[CH]C1
397 OC1=[C][CH]1
398 [O]C1=[C]C1
399 OC1[C]=[C]1
400 [O]C1[C]=C1
401 [CH2]C1=[C]O1
402 [CH]C1=CO1
403 [C]=C1CO1
404 [C]1=[C]OC1
405 [C]1=CO[CH]1
406 [C]1=C[CH]O1
407 [O]C1=[C]O1
408 [C]=C1OO1
409 [c]1[c]oo1
410 [C]#[C]
411 [C]#C[CH2]
412 [CH]C#C
413 [C]#C[O]
414 [CH]C#CC
415 [C]=C=CC
416 [CH]C=C=C
417 [C]#CC[CH2]
418 [CH]CC#C
419 [C]=CC=C
420 [CH]=CC=[CH]
421 [CH]C#CO
422 [C]=C=CO
423 [CH]C=C=O
424 [C]#CC[O]
425 [C]=CC=O
426 [C]#CO[CH2]
427 [CH]OC#C
428 [C]#CO[O]
429 C=C1[C]=[C]1
430 [CH]=C1[C]=C1
431 [C]=C1C=C1
432 [C]1=[C]C=C1
433 [C]1=C[C]=C1
434 O=c1[c][c]1
435 [C]=C=C=C
436 [C]#CC=[CH]
437 [C]=CC#C
438 [C]=C=C=O
439 [C]#CC#[C]
440 [CH]
441 [C]C
442 [C]O
443 [C]CC
444 [CH]C[CH2]
445 [C]CO
446 [CH]C[O]
447 [C]OC
448 [CH]O[CH2]
449 [C]OO
450 [CH]O[O]
451 [C]C(C)C
452 [CH]C([CH2])C
453 [CH2]C([CH2])[CH2]
454 [CH2]C[C]C
455 [CH]C[CH]C
456 [C]CCC
457 [CH]CC[CH2]
458 [C]C(C)O
459 [CH]C([CH2])O
460 [CH]C(C)[O]
461 [CH2]C([CH2])[O]
462 C[C]C[O]
463 [CH2]C[C]O
464 [CH]C[CH]O
465 [C]CCO
466 [CH]CC[O]
467 [CH2]O[C]C
468 [CH]O[CH]C
469 [C]COC
470 [CH]CO[CH2]
471 [CH]OC[CH2]
472 [C]OCC
473 [C]C(O)O
474 [CH]C([O])O
475 [CH2]C([O])[O]
476 [O]C[C]O
477 C[C]O[O]
478 [C]COO
479 [CH]CO[O]
480 [CH2]O[C]O
481 [CH]O[CH]O
482 [C]OCO
483 [CH]OC[O]
484 [C]OOC
485 [CH]OO[CH2]
486 [CH2]C1[C]C1
487 [CH]C1[CH]C1
488 [C]C1CC1
489 [C]1C[CH]C1
490 [O]C1[C]C1
491 [CH2]C1[C]O1
492 [CH]C1[CH]O1
493 [C]C1CO1
494 [C]1C[CH]O1
495 [O]C1[C]O1
496 [C]C1OO1
497 [C]1O[CH]O1
498 [C]=C[CH2]
499 [CH]C=[CH]
500 [C]=C[O]
501 [C]=C([CH2])C
502 [CH]C(=[CH])C
503 [CH]=C([CH2])[CH2]
504 [CH]C=[C]C
505 [C]C=CC
506 [CH]C[C]=C
507 [C]=CC[CH2]
508 [CH]CC=[CH]
509 [C]CC=C
510 [C]=C([CH2])O
511 [C]=C(C)[O]
512 [CH]C(=[CH])O
513 [CH]=C([CH2])[O]
514 [CH]C=[C]O
515 [C]C=CO
516 [C]=CC[O]
517 [CH]C[C]=O
518 [C]CC=O
519 [CH]O[C]=C
520 [C]=CO[CH2]
521 [CH]OC=[CH]
522 [C]OC=C
523 [C]=C([O])O
524 [CH]=C([O])[O]
525 [C]=CO[O]
526 [CH]O[C]=O
527 [C]OC=O
528 [C]1=[C][CH]1
529 CC1=[C][C]1
530 [CH]C1=[C]C1
531 [C]C1=CC1
532 [CH2]C1[C]=[C]1
533 [CH]C1[C]=C1
534 [C]C1C=C1
535 [C]1=[C]C[CH]1
536 [C]1C=[C]C1
537 OC1=[C][C]1
538 [O]C1[C]=[C]1
539 [CH]C1=[C]O1
540 [C]C1=CO1
541 [C]1=[C]O[CH]1
542 [C]1C=[C]O1
543 [C]#C[CH]
544 [C]C#CC
545 [C]C=C=C
546 [C]#CC[CH]
547 [C]CC#C
548 [C]=CC=[CH]
549 [C]C#CO
550 [C]C=C=O
551 [C]#CO[CH]
552 [C]OC#C
553 [CH]=C1[C]=[C]1
554 [C]=C1[C]=C1
555 [C]1=[C]C=[C]1
556 [C]=CC#[C]
557 [C]
558 [C]C[CH2]
559 [CH]C[CH]
560 [C]C[O]
561 [C]O[CH2]
562 [CH]O[CH]
563 [C]O[O]
564 [C]C([CH2])C
565 [CH]C([CH])C
566 [CH]C([CH2])[CH2]
567 [CH]C[C]C
568 [C]C[CH]C
569 [C]CC[CH2]
570 [CH]CC[CH]
571 [C]C([CH2])O
572 [C]C(C)[O]
573 [CH]C([CH])O
574 [CH]C([CH2])[O]
575 [CH]C[C]O
576 [C]C[CH]O
577 [C]CC[O]
578 [CH]O[C]C
579 [C]O[CH]C
580 [C]CO[CH2]
581 [CH]CO[CH]
582 [C]OC[CH2]
583 [C]C([O])O
584 [CH]C([O])[O]
585 [C]CO[O]
586 [CH]O[C]O
587 [C]O[CH]O
588 [C]OC[O]
589 [C]OO[CH2]
590 [CH]OO[CH]
591 [CH]C1[C]C1
592 [C]C1[CH]C1
593 [C]1C[C]C1
594 [CH]C1[C]O1
595 [C]C1[CH]O1
596 [C]1C[C]O1
597 [C]1O[C]O1
598 [C]=C[CH]
599 [C]=C([CH])C
600 [C]=C([CH2])[CH2]
601 [CH]C(=[CH])[CH2]
602 [C]C=[C]C
603 [C]C[C]=C
604 [C]=CC[CH]
605 [C]CC=[CH]
606 [C]=C([CH])O
607 [C]=C([CH2])[O]
608 [CH]C(=[CH])[O]
609 [C]C=[C]O
610 [C]C[C]=O
611 [C]O[C]=C
612 [C]=CO[CH]
613 [C]OC=[CH]
614 [C]=C([O])[O]
615 [C]O[C]=O
616 [C]1[C]=[C]1
617 [C]C1=[C]C1
618 [CH]C1[C]=[C]1
619 [C]C1[C]=C1
620 [C]1[C]=[C]C1
621 [C]C1=[C]O1
622 [C]1[C]=[C]O1
623 [C]C#[C]
624 [C]CC#[C]
625 [C]=CC=[C]
626 [C]OC#[C]
627 [C]=C1[C]=[C]1
628 [C]1=[C][C]=[C]1
629 [C]C[CH]
630 [C]O[CH]
631 [C]C([CH])C
632 [C]C([CH2])[CH2]
633 [CH]C([CH])[CH2]
634 [C]C[C]C
635 [C]CC[CH]
636 [C]C([CH])O
637 [C]C([CH2])[O]
638 [CH]C([CH])[O]
639 [C]C[C]O
640 [C]O[C]C
641 [C]CO[CH]
642 [C]OC[CH]
643 [C]C([O])[O]
644 [C]O[C]O
645 [C]OO[CH]
646 [C]C1[C]C1
647 [C]C1[C]O1
648 [C]C=[C]
649 [C]C(=[C])C
650 [C]=C([CH])[CH2]
651 [CH]C([CH])=[CH]
652 [C]CC=[C]
653 [C]C(=[C])O
654 [C]=C([CH])[O]
655 [C]OC=[C]
656 [C]C1[C]=[C]1
657 [C]C[C]
658 [C]O[C]
659 [C]C([C])C
660 [C]C([CH])[CH2]
661 [CH]C([CH])[CH]
662 [C]CC[C]
663 [C]C([C])O
664 [C]C([CH])[O]
665 [C]CO[C]
666 [C]OO[C]
667 [C]C(=[C])[CH2]
668 [C]=C([CH])[CH]
669 [C]C(=[C])[O]
670 [C]C([C])[CH2]
671 [C]C([CH])[CH]
672 [C]C([C])[O]
673 [C]C(=[C])[CH]
674 [C]C([C])[CH]
675 [C]C([C])=[C]
676 [C]C([C])[C]
677 [H]
678 [H][H]
679 [x]
