OC1=CC1 C3H4O
O=C1CC1 C3H4O
OC1C=C1 C3H4O
CC1=CO1 C3H4O
C=C1CO1 C3H4O
C1=COC1 C3H4O
CC#CO C3H4O
C=C=CO C3H4O
CC=C=O C3H4O
C#CCO C3H4O
C=CC=O C3H4O
C#COC C3H4O
OC1[C]C1 C3H4O
[O]C1[CH]C1 C3H4O
CC1[C]O1 C3H4O
[CH2]C1[CH]O1 C3H4O
[CH]C1CO1 C3H4O
[C]1COC1 C3H4O
[C]1CCO1 C3H4O
[CH]1C[CH]O1 C3H4O
[C]=C(C)O C3H4O
[CH]=C([CH2])O C3H4O
[CH]=C(C)[O] C3H4O
[CH2]C(=C)[O] C3H4O
C[C]=C[O] C3H4O
[CH2]C=[C]O C3H4O
[CH]C=CO C3H4O
C=[C]C[O] C3H4O
[C]=CCO C3H4O
[CH]=CC[O] C3H4O
[CH2]C[C]=O C3H4O
[CH]CC=O C3H4O
[CH2]O[C]=C C3H4O
[C]=COC C3H4O
[CH]=CO[CH2] C3H4O
[CH]OC=C C3H4O
[C]C([CH2])O C3H4O
[C]C(C)[O] C3H4O
[CH]C([CH])O C3H4O
[CH]C([CH2])[O] C3H4O
[CH]C[C]O C3H4O
[C]C[CH]O C3H4O
[C]CC[O] C3H4O
[CH]O[C]C C3H4O
[C]O[CH]C C3H4O
[C]CO[CH2] C3H4O
[CH]CO[CH] C3H4O
[C]OC[CH2] C3H4O
